…
``` r
load('biodata/Apocynaceae-Meliaceae-Sapotaceae.Rdata')
mi_fam <- mc_apcyn_melic_saptc
```

### Generar matriz de distancias de cuerdas

``` r
mi_fam_norm <- decostand(mi_fam, "normalize")
mi_fam_norm_d <- vegdist(mi_fam_norm, "euc")
mi_fam_norm_d %>% tidy
```

    ## # A tibble: 1,225 x 3
    ##    item1 item2 distance
    ##    <int> <int>    <dbl>
    ##  1     2     1    0.109
    ##  2     3     1    0.468
    ##  3     4     1    0.448
    ##  4     5     1    0.538
    ##  5     6     1    0.324
    ##  6     7     1    0.230
    ##  7     8     1    0.189
    ##  8     9     1    0.247
    ##  9    10     1    0.295
    ## 10    11     1    0.150
    ## # … with 1,215 more rows
…
