…
Primero crearé un objeto que permita realizar tanto las pruebas como los
diagramas de cajas.

``` r
(m_amb_upgma_k2 <- bci_env_grid %>%
  select_if(is.numeric) %>% select(-id) %>% 
  mutate(grupos_upgma_k2) %>%
  st_drop_geometry() %>% 
  pivot_longer(-grupos_upgma_k2, names_to = "variable", values_to = "valor"))
```

    ## # A tibble: 1,650 x 3
    ##    grupos_upgma_k2 variable                       valor
    ##    <fct>           <chr>                          <dbl>
    ##  1 1               heterogeneidad_ambiental       0.627
    ##  2 1               UTM.EW                    625754.   
    ##  3 1               UTM.NS                   1011569.   
    ##  4 1               geomorf_llanura_pct           10.0  
    ##  5 1               geomorf_pico_pct               0    
    ##  6 1               geomorf_interfluvio_pct        0.83 
    ##  7 1               geomorf_hombrera_pct          10.8  
    ##  8 1               geomorf_espolón/gajo_pct       7.26 
    ##  9 1               geomorf_vertiente_pct         67.1  
    ## 10 1               geomorf_vaguada_pct            3.28 
    ## # … with 1,640 more rows
…
### Pruebas de igualdad de promedios de las variables entre 3 grupos o más

Objeto común:

``` r
(m_amb_ward_k3 <- bci_env_grid %>%
  select_if(is.numeric) %>% select(-id) %>% 
  mutate(grupos_ward_k3) %>%
  st_drop_geometry() %>% 
  pivot_longer(-grupos_ward_k3, names_to = "variable", values_to = "valor"))
```

    ## # A tibble: 1,650 x 3
    ##    grupos_ward_k3 variable                       valor
    ##    <fct>          <chr>                          <dbl>
    ##  1 1              heterogeneidad_ambiental       0.627
    ##  2 1              UTM.EW                    625754.   
    ##  3 1              UTM.NS                   1011569.   
    ##  4 1              geomorf_llanura_pct           10.0  
    ##  5 1              geomorf_pico_pct               0    
    ##  6 1              geomorf_interfluvio_pct        0.83 
    ##  7 1              geomorf_hombrera_pct          10.8  
    ##  8 1              geomorf_espolón/gajo_pct       7.26 
    ##  9 1              geomorf_vertiente_pct         67.1  
    ## 10 1              geomorf_vaguada_pct            3.28 
    ## # … with 1,640 more rows
…
