…
Agruparé la matriz ambiental por la columna `habitat`, dejando sólo las
variables numericas que hagan sentido (por ejemplo, excluyo `id`,
`UTM.EW`, `UTM.NS`), y lo asignaré a `agrupado_por_habitat` para luego
reutilizarlo:

``` r
agrupado_por_habitat <- bci_env_grid %>%
  st_drop_geometry %>%
  group_by(habitat) %>% 
  select_if(is.numeric) %>%
  select(-id, -UTM.EW, -UTM.NS)
agrupado_por_habitat
```

    ## # A tibble: 50 x 32
    ## # Groups:   habitat [5]
    ##    habitat heterogeneidad_… geomorf_llanura… geomorf_pico_pct
    ##  * <fct>              <dbl>            <dbl>            <dbl>
    ##  1 OldSlo…           0.627             10.0              0   
    ##  2 OldLow            0.394             34.8              0   
    ##  3 OldLow            0                  0                0   
    ##  4 OldLow            0                  0                0   
    ##  5 OldSlo…           0.461              2.58             0   
    ##  6 OldLow            0.0768             0                0.17
    ##  7 OldLow            0.381              0                0.53
    ##  8 OldLow            0.211              0                0   
    ##  9 OldLow            0                  0                0   
    ## 10 OldLow            0                  1.03             0   
    ## # … with 40 more rows, and 28 more variables:
    ## #   geomorf_interfluvio_pct <dbl>, geomorf_hombrera_pct <dbl>,
    ## #   `geomorf_espolón/gajo_pct` <dbl>, geomorf_vertiente_pct <dbl>,
    ## #   geomorf_vaguada_pct <dbl>, geomorf_piedemonte_pct <dbl>,
    ## #   geomorf_valle_pct <dbl>, geomorf_sima_pct <dbl>, Al <dbl>, B <dbl>,
    ## #   Ca <dbl>, Cu <dbl>, Fe <dbl>, K <dbl>, Mg <dbl>, Mn <dbl>, P <dbl>,
    ## #   Zn <dbl>, N <dbl>, N.min. <dbl>, pH <dbl>, elevacion_media <dbl>,
    ## #   pendiente_media <dbl>, orientacion_media <dbl>,
    ## #   curvatura_perfil_media <dbl>, curvatura_tangencial_media <dbl>,
…
Obtendré una tabla con dos columnas: código identificador de quadrat de
1 ha (le llamaré `id`), y abundancia de todas las plantas de mi familia
por quadrat (le llamaré `abundancia_mi_familia`)

``` r
id_abundancia_fam <- mc_apcyn_melic_saptc %>%
  mutate(abundancia_mi_familia = rowSums(.)) %>% 
  rownames_to_column(var = 'id') %>%
  mutate(id = as.numeric(id)) %>% #Numérico, garantiza compatibilidad con id de bci_env_grid
  select(id, abundancia_mi_familia)
id_abundancia_fam %>% tibble
```

    ## # A tibble: 50 x 2
    ##       id abundancia_mi_familia
    ##    <dbl>                 <dbl>
    ##  1     1                   309
    ##  2     2                   313
    ##  3     3                   215
    ##  4     4                   237
    ##  5     5                   188
    ##  6     6                   193
    ##  7     7                   253
    ##  8     8                   215
    ##  9     9                   180
    ## 10    10                   214
    ## # … with 40 more rows
…
Pongo un ejemplo. Por tipo de hábitat, ¿cuánto es el promedio de los
porcentajes de cada uno de los 10 tipos de unidades geomorfológicas?
`pivot_longer` lo hará al final, pero primero, hay que seleccionar solo
las columnas de porcentajes de unidades geomorfológicas y la de habitat…

``` r
pivotpaso1 <- bci_env_grid %>%
  st_drop_geometry %>% 
  select(matches('geomorf|habitat'))
pivotpaso1 %>% tibble
```

    ## # A tibble: 50 x 11
    ##    habitat geomorf_llanura… geomorf_pico_pct geomorf_interfl…
    ##    <fct>              <dbl>            <dbl>            <dbl>
    ##  1 OldSlo…            10.0              0                0.83
    ##  2 OldLow             34.8              0                0.36
    ##  3 OldLow              0                0                0   
    ##  4 OldLow              0                0                0.16
    ##  5 OldSlo…             2.58             0                0   
    ##  6 OldLow              0                0.17             3.01
    ##  7 OldLow              0                0.53             2.87
    ##  8 OldLow              0                0                0   
    ##  9 OldLow              0                0                0   
    ## 10 OldLow              1.03             0                0   
    ## # … with 40 more rows, and 7 more variables: geomorf_hombrera_pct <dbl>,
    ## #   `geomorf_espolón/gajo_pct` <dbl>, geomorf_vertiente_pct <dbl>,
    ## #   geomorf_vaguada_pct <dbl>, geomorf_piedemonte_pct <dbl>,
    ## #   geomorf_valle_pct <dbl>, geomorf_sima_pct <dbl>

…luego reunir todas las columnas de geomorfología pivotando en torno a
la columna `habitat`…

``` r
pivotpaso2 <- pivotpaso1 %>%
  pivot_longer(
    cols = contains('geomorf'),
    names_to = 'variable',
    values_to = 'valor')
pivotpaso2 %>% tibble
```

    ## # A tibble: 500 x 3
    ##    habitat  variable                  valor
    ##    <fct>    <chr>                     <dbl>
    ##  1 OldSlope geomorf_llanura_pct      10.0  
    ##  2 OldSlope geomorf_pico_pct          0    
    ##  3 OldSlope geomorf_interfluvio_pct   0.83 
    ##  4 OldSlope geomorf_hombrera_pct     10.8  
    ##  5 OldSlope geomorf_espolón/gajo_pct  7.26 
    ##  6 OldSlope geomorf_vertiente_pct    67.1  
    ##  7 OldSlope geomorf_vaguada_pct       3.28 
    ##  8 OldSlope geomorf_piedemonte_pct    0.780
    ##  9 OldSlope geomorf_valle_pct         0    
    ## 10 OldSlope geomorf_sima_pct          0    
    ## # … with 490 more rows
…
Necesitamos tres columnas, una con los nombres de los hábitats, otra con
los nombres de las variables, y otra con los valores, algo tal que…

``` r
habitat_riqueza_abundancia <- bci_env_grid %>% st_drop_geometry %>% 
  select(habitat, abundancia_global, riqueza_global) %>% 
  pivot_longer(
    cols = c(abundancia_global, riqueza_global),
    names_to = 'variable',
    values_to = 'valor')
habitat_riqueza_abundancia
```

    ## # A tibble: 100 x 3
    ##    habitat  variable          valor
    ##    <fct>    <chr>             <dbl>
    ##  1 OldSlope abundancia_global  4079
    ##  2 OldSlope riqueza_global      181
    ##  3 OldLow   abundancia_global  3800
    ##  4 OldLow   riqueza_global      163
    ##  5 OldLow   abundancia_global  4611
    ##  6 OldLow   riqueza_global      171
    ##  7 OldLow   abundancia_global  3906
    ##  8 OldLow   riqueza_global      163
    ##  9 OldSlope abundancia_global  4549
    ## 10 OldSlope riqueza_global      174
    ## # … with 90 more rows
…
