…
### También podemos usar

Requiere que se haya cargado ya la colección tidyverse

``` r
censo_apcyn_melic_saptc %>% tibble
```

    ## # A tibble: 18,426 x 30
    ##    treeID stemID tag   StemTag sp    quadrat    gx    gy MeasureID CensusID
    ##     <int>  <int> <chr> <chr>   <chr> <chr>   <dbl> <dbl>     <int>    <int>
    ##  1     35      1 0000… ""      tri2… 4921     992.  432.        12      171
    ##  2     41      4 0000…  <NA>   guar… 4921     991.  420.        18      171
    ##  3     47      1 0000… ""      tri2… 4919     988.  392.        27      171
    ##  4     75      1 0000… ""      tri2… 4915     994.  308.        47      171
    ##  5     90      1 0000… ""      pout… 4912     987   250.        58      171
    ##  6     99      1 0000… ""      tab2… 4912     982.  241.        62      171
    ##  7    108      1 0000… ""      tri2… 4911     997   220.        68      171
    ##  8    113      1 0000… ""      chr2… 4909     998.  195.        71      171
    ##  9    125      1 0001… ""      guar… 4908     990.  168.        78      171
    ## 10    135      1 0001… ""      chr2… 4906     996.  134.        84      171
    ## # … with 18,416 more rows, and 20 more variables: dbh <dbl>, pom <chr>,
    ## #   hom <dbl>, ExactDate <chr>, DFstatus <chr>, codes <chr>,
    ## #   nostems <dbl>, date <dbl>, status <chr>, agb <dbl>, Latin <chr>,
    ## #   Genus <chr>, Species <chr>, Family <chr>, speciesID <int>,
    ## #   authority <chr>, IDlevel <chr>, syn <chr>, subsp <chr>, quad1ha <dbl>

``` r
mc_apcyn_melic_saptc %>% tibble
```

    ## # A tibble: 50 x 16
    ##    `Aspidosperma s… `Cedrela odorat… `Chrysophyllum … `Chrysophyllum …
    ##               <dbl>            <dbl>            <dbl>            <dbl>
    ##  1                3                0               21                2
    ##  2                2                0               11                1
    ##  3                2                0               19                1
    ##  4                3                0               38                2
    ##  5                2                1               21                0
    ##  6                3                0               18                0
    ##  7                0                0                9                3
    ##  8                4                0               14                0
    ##  9                5                0               25                0
    ## 10                1                0               17                1
    ## # … with 40 more rows, and 12 more variables: `Guarea bullata` <dbl>,
    ## #   `Guarea grandifolia` <dbl>, `Guarea guidonia` <dbl>, `Lacmellea
    ## #   panamensis` <dbl>, `Pouteria fossicola` <dbl>, `Pouteria
    ## #   reticulata` <dbl>, `Pouteria stipitata` <dbl>, `Rauvolfia
    ## #   littoralis` <dbl>, `Tabernaemontana arborea` <dbl>, `Thevetia
    ## #   ahouai` <dbl>, `Trichilia pallida` <dbl>, `Trichilia
    ## #   tuberculata` <dbl>
…
