…
``` r
env_num <- bci_env_grid %>%
  dplyr::select_if(is.numeric) %>%
  dplyr::select(-id, -matches('^U.*')) %>% 
  st_drop_geometry %>% 
  mutate(
    riqueza_mifam = specnumber(mc_apcyn_melic_saptc),
    abundancia_mifam = rowSums(mc_apcyn_melic_saptc)) %>% 
  rename_all(gsub, pattern = '_pct$', replacement = '') %>% 
  rename_all(gsub, pattern = '_| ', replacement = '\n')
env_num %>% tibble
```

    ## # A tibble: 50 x 33
    ##    `heterogeneidad… `geomorf\nllanu… `geomorf\npico` `geomorf\ninter…
    ##               <dbl>            <dbl>           <dbl>            <dbl>
    ##  1           0.627             10.0             0                0.83
    ##  2           0.394             34.8             0                0.36
    ##  3           0                  0               0                0   
    ##  4           0                  0               0                0.16
    ##  5           0.461              2.58            0                0   
    ##  6           0.0768             0               0.17             3.01
    ##  7           0.381              0               0.53             2.87
    ##  8           0.211              0               0                0   
    ##  9           0                  0               0                0   
    ## 10           0                  1.03            0                0   
    ## # … with 40 more rows, and 29 more variables: `geomorf\nhombrera` <dbl>,
    ## #   `geomorf\nespolón/gajo` <dbl>, `geomorf\nvertiente` <dbl>,
    ## #   `geomorf\nvaguada` <dbl>, `geomorf\npiedemonte` <dbl>,
    ## #   `geomorf\nvalle` <dbl>, `geomorf\nsima` <dbl>, Al <dbl>, B <dbl>,
    ## #   Ca <dbl>, Cu <dbl>, Fe <dbl>, K <dbl>, Mg <dbl>, Mn <dbl>, P <dbl>,
    ## #   Zn <dbl>, N <dbl>, N.min. <dbl>, pH <dbl>, `elevacion\nmedia` <dbl>,
    ## #   `pendiente\nmedia` <dbl>, `orientacion\nmedia` <dbl>,
    ## #   `curvatura\nperfil\nmedia` <dbl>,
    ## #   `curvatura\ntangencial\nmedia` <dbl>, `abundancia\nglobal` <dbl>,
…
