…
``` r
source('biodata/funciones.R')
```

### Cargar datos

``` r
load('biodata/Apocynaceae-Meliaceae-Sapotaceae.Rdata')
load('biodata/matriz_ambiental.Rdata')
mi_fam <- mc_apcyn_melic_saptc
bci_env_grid %>% tibble
```

    ## # A tibble: 50 x 39
    ##       id categoria_de_ed… geologia habitat quebrada heterogeneidad_… UTM.EW
    ##    <dbl> <fct>            <fct>    <fct>   <fct>               <dbl>  <dbl>
    ##  1     1 c3               Tb       OldSlo… Yes                0.627  6.26e5
    ##  2     2 c3               Tb       OldLow  Yes                0.394  6.26e5
    ##  3     3 c3               Tb       OldLow  No                 0      6.26e5
    ##  4     4 c3               Tb       OldLow  No                 0      6.26e5
    ##  5     5 c3               Tb       OldSlo… No                 0.461  6.26e5
    ##  6     6 c3               Tb       OldLow  No                 0.0768 6.26e5
    ##  7     7 c3               Tb       OldLow  Yes                0.381  6.26e5
    ##  8     8 c3               Tb       OldLow  Yes                0.211  6.26e5
    ##  9     9 c3               Tb       OldLow  No                 0      6.26e5
    ## 10    10 c3               Tb       OldLow  No                 0      6.26e5
    ## # … with 40 more rows, and 32 more variables: UTM.NS <dbl>,
    ## #   geomorf_llanura_pct <dbl>, geomorf_pico_pct <dbl>,
    ## #   geomorf_interfluvio_pct <dbl>, geomorf_hombrera_pct <dbl>,
    ## #   `geomorf_espolón/gajo_pct` <dbl>, geomorf_vertiente_pct <dbl>,
    ## #   geomorf_vaguada_pct <dbl>, geomorf_piedemonte_pct <dbl>,
    ## #   geomorf_valle_pct <dbl>, geomorf_sima_pct <dbl>, Al <dbl>, B <dbl>,
    ## #   Ca <dbl>, Cu <dbl>, Fe <dbl>, K <dbl>, Mg <dbl>, Mn <dbl>, P <dbl>,
    ## #   Zn <dbl>, N <dbl>, N.min. <dbl>, pH <dbl>, elevacion_media <dbl>,
    ## #   pendiente_media <dbl>, orientacion_media <dbl>,
…
``` r
indices_env <- bind_cols(
  indices,
  bci_env_grid %>%
    select_if(is.numeric) %>%
    st_drop_geometry %>%
    select(-id) %>% 
    select(-matches('^geom.*pct$')))
indices_env %>% tibble
```

    ## # A tibble: 50 x 32
    ##       N0     H   Hb2    N1  N1b2    N2     J   E10   E20 heterogeneidad_…
    ##    <int> <dbl> <dbl> <dbl> <dbl> <dbl> <dbl> <dbl> <dbl>            <dbl>
    ##  1    12  1.63  2.36  5.12  5.12  3.26 0.657 0.427 0.272           0.627 
    ##  2    11  1.47  2.13  4.37  4.37  2.81 0.615 0.397 0.255           0.394 
    ##  3    12  1.88  2.71  6.55  6.55  5.16 0.757 0.546 0.430           0     
    ##  4    12  1.95  2.81  7.02  7.02  5.53 0.784 0.585 0.461           0     
    ##  5    14  2.04  2.94  7.67  7.67  6.23 0.772 0.548 0.445           0.461 
    ##  6    11  1.77  2.56  5.89  5.89  4.35 0.740 0.536 0.396           0.0768
    ##  7    11  1.58  2.28  4.85  4.85  3.19 0.659 0.441 0.290           0.381 
    ##  8    11  1.77  2.56  5.90  5.90  4.03 0.740 0.536 0.367           0.211 
    ##  9    11  1.55  2.24  4.72  4.72  3.08 0.647 0.429 0.280           0     
    ## 10    11  1.75  2.52  5.74  5.74  4.33 0.729 0.522 0.394           0     
    ## # … with 40 more rows, and 22 more variables: UTM.EW <dbl>, UTM.NS <dbl>,
    ## #   Al <dbl>, B <dbl>, Ca <dbl>, Cu <dbl>, Fe <dbl>, K <dbl>, Mg <dbl>,
    ## #   Mn <dbl>, P <dbl>, Zn <dbl>, N <dbl>, N.min. <dbl>, pH <dbl>,
    ## #   elevacion_media <dbl>, pendiente_media <dbl>, orientacion_media <dbl>,
    ## #   curvatura_perfil_media <dbl>, curvatura_tangencial_media <dbl>,
    ## #   abundancia_global <dbl>, riqueza_global <int>
…
