…
### Cargar datos

``` r
load('biodata/Apocynaceae-Meliaceae-Sapotaceae.Rdata')
load('biodata/matriz_ambiental.Rdata')
mi_fam <- mc_apcyn_melic_saptc
bci_env_grid %>% tibble
```

    ## # A tibble: 50 x 39
    ##       id categoria_de_ed… geologia habitat quebrada heterogeneidad_… UTM.EW
    ##    <dbl> <fct>            <fct>    <fct>   <fct>               <dbl>  <dbl>
    ##  1     1 c3               Tb       OldSlo… Yes                0.627  6.26e5
    ##  2     2 c3               Tb       OldLow  Yes                0.394  6.26e5
    ##  3     3 c3               Tb       OldLow  No                 0      6.26e5
    ##  4     4 c3               Tb       OldLow  No                 0      6.26e5
    ##  5     5 c3               Tb       OldSlo… No                 0.461  6.26e5
    ##  6     6 c3               Tb       OldLow  No                 0.0768 6.26e5
    ##  7     7 c3               Tb       OldLow  Yes                0.381  6.26e5
    ##  8     8 c3               Tb       OldLow  Yes                0.211  6.26e5
    ##  9     9 c3               Tb       OldLow  No                 0      6.26e5
    ## 10    10 c3               Tb       OldLow  No                 0      6.26e5
    ## # … with 40 more rows, and 32 more variables: UTM.NS <dbl>,
    ## #   geomorf_llanura_pct <dbl>, geomorf_pico_pct <dbl>,
    ## #   geomorf_interfluvio_pct <dbl>, geomorf_hombrera_pct <dbl>,
    ## #   `geomorf_espolón/gajo_pct` <dbl>, geomorf_vertiente_pct <dbl>,
    ## #   geomorf_vaguada_pct <dbl>, geomorf_piedemonte_pct <dbl>,
    ## #   geomorf_valle_pct <dbl>, geomorf_sima_pct <dbl>, Al <dbl>, B <dbl>,
    ## #   Ca <dbl>, Cu <dbl>, Fe <dbl>, K <dbl>, Mg <dbl>, Mn <dbl>, P <dbl>,
    ## #   Zn <dbl>, N <dbl>, N.min. <dbl>, pH <dbl>, elevacion_media <dbl>,
    ## #   pendiente_media <dbl>, orientacion_media <dbl>,
…
### Diversidad beta con un único número

``` r
beta_multiplicativa <- calcular_beta_multiplicativa(
  mc = mi_fam,
  orden = 0:20)
beta_multiplicativa
```

    ## $beta_multiplicativa
    ## # A tibble: 21 x 3
    ##    orden  beta   error
    ##    <int> <dbl>   <dbl>
    ##  1     0  1.40 0.0512 
    ##  2     1  1.12 0.00428
    ##  3     2  1.09 0.00450
    ##  4     3  1.10 0.00598
    ##  5     4  1.11 0.00604
    ##  6     5  1.13 0.00676
    ##  7     6  1.14 0.00698
    ##  8     7  1.16 0.00744
    ##  9     8  1.17 0.00763
    ## 10     9  1.18 0.00794
    ## # … with 11 more rows
    ## 
    ## $grafico
…
