…
### Cargar datos

``` r
load('biodata/Apocynaceae-Meliaceae-Sapotaceae.Rdata')
load('biodata/matriz_ambiental.Rdata')
mi_fam <- mc_apcyn_melic_saptc
mi_fam %>% tibble
```

    ## # A tibble: 50 x 16
    ##    `Aspidosperma s… `Cedrela odorat… `Chrysophyllum … `Chrysophyllum …
    ##               <dbl>            <dbl>            <dbl>            <dbl>
    ##  1                3                0               21                2
    ##  2                2                0               11                1
    ##  3                2                0               19                1
    ##  4                3                0               38                2
    ##  5                2                1               21                0
    ##  6                3                0               18                0
    ##  7                0                0                9                3
    ##  8                4                0               14                0
    ##  9                5                0               25                0
    ## 10                1                0               17                1
    ## # … with 40 more rows, and 12 more variables: `Guarea bullata` <dbl>,
    ## #   `Guarea grandifolia` <dbl>, `Guarea guidonia` <dbl>, `Lacmellea
    ## #   panamensis` <dbl>, `Pouteria fossicola` <dbl>, `Pouteria
    ## #   reticulata` <dbl>, `Pouteria stipitata` <dbl>, `Rauvolfia
    ## #   littoralis` <dbl>, `Tabernaemontana arborea` <dbl>, `Thevetia
    ## #   ahouai` <dbl>, `Trichilia pallida` <dbl>, `Trichilia
    ## #   tuberculata` <dbl>

``` r
bci_env_grid %>% tibble
```

    ## # A tibble: 50 x 39
    ##       id categoria_de_ed… geologia habitat quebrada heterogeneidad_… UTM.EW
    ##    <dbl> <fct>            <fct>    <fct>   <fct>               <dbl>  <dbl>
    ##  1     1 c3               Tb       OldSlo… Yes                0.627  6.26e5
    ##  2     2 c3               Tb       OldLow  Yes                0.394  6.26e5
    ##  3     3 c3               Tb       OldLow  No                 0      6.26e5
    ##  4     4 c3               Tb       OldLow  No                 0      6.26e5
    ##  5     5 c3               Tb       OldSlo… No                 0.461  6.26e5
    ##  6     6 c3               Tb       OldLow  No                 0.0768 6.26e5
    ##  7     7 c3               Tb       OldLow  Yes                0.381  6.26e5
    ##  8     8 c3               Tb       OldLow  Yes                0.211  6.26e5
    ##  9     9 c3               Tb       OldLow  No                 0      6.26e5
    ## 10    10 c3               Tb       OldLow  No                 0      6.26e5
    ## # … with 40 more rows, and 32 more variables: UTM.NS <dbl>,
    ## #   geomorf_llanura_pct <dbl>, geomorf_pico_pct <dbl>,
    ## #   geomorf_interfluvio_pct <dbl>, geomorf_hombrera_pct <dbl>,
    ## #   `geomorf_espolón/gajo_pct` <dbl>, geomorf_vertiente_pct <dbl>,
    ## #   geomorf_vaguada_pct <dbl>, geomorf_piedemonte_pct <dbl>,
    ## #   geomorf_valle_pct <dbl>, geomorf_sima_pct <dbl>, Al <dbl>, B <dbl>,
    ## #   Ca <dbl>, Cu <dbl>, Fe <dbl>, K <dbl>, Mg <dbl>, Mn <dbl>, P <dbl>,
    ## #   Zn <dbl>, N <dbl>, N.min. <dbl>, pH <dbl>, elevacion_media <dbl>,
    ## #   pendiente_media <dbl>, orientacion_media <dbl>,
…
