…
## Modo Q: matrices de disimilaridad entre objetos

### Modo Q para datos cuantitativos de especies (abundancia). Datos de mi familia asignada

Aplicado a mi familia asignada de BCI, en la forma de matriz de
distancia euclídea, utilizando la transformación *Hellinger*:

``` r
mi_fam_d_hel <- dist.ldc(mc_apcyn_melic_saptc, "hellinger", silent = T)
mi_fam_d_hel %>% tidy # Para evitar desbordar la consola
```

    ## # A tibble: 1,225 x 3
    ##    item1 item2 distance
    ##    <int> <int>    <dbl>
    ##  1     2     1    0.179
    ##  2     3     1    0.329
    ##  3     4     1    0.342
    ##  4     5     1    0.350
    ##  5     6     1    0.295
    ##  6     7     1    0.323
    ##  7     8     1    0.275
    ##  8     9     1    0.342
    ##  9    10     1    0.298
    ## 10    11     1    0.238
    ## # … with 1,215 more rows
…
  - Correcto: “índice de **disimilaridad** de Jaccard”, “índice de
    **similaridad** de Sorensen”, o simplemente “**similaridad** de
    Jaccard”, “**distancia** de Jaccard”.

  - Incorrecto: “índice de Jaccard”, “índice de Sorensen”.

A continuación, muestro cómo calcular la **distancia de Jaccard**
(**D<sub>J</sub>**) en un único paso usando la función `vegdist`.

``` r
mi_fam_jac <- vegdist(mc_apcyn_melic_saptc, method = 'jac', binary = T)
mi_fam_jac %>% tidy # Mostrando sólo las primeras 10 combinaciones en modo data.frame
```

    ## # A tibble: 1,225 x 3
    ##    item1 item2 distance
    ##    <int> <int>    <dbl>
    ##  1     2     1   0.0833
    ##  2     3     1   0.154 
    ##  3     4     1   0.154 
    ##  4     5     1   0.267 
    ##  5     6     1   0.231 
    ##  6     7     1   0.231 
    ##  7     8     1   0.231 
    ##  8     9     1   0.231 
    ##  9    10     1   0.231 
    ## 10    11     1   0.154 
    ## # … with 1,215 more rows
…
Como la distancia de Jaccard (**D<sub>J</sub>**) es el complemento a 1
de la similaridad de Jaccard (**S<sub>J</sub>**), es decir,
**D<sub>J</sub>=1-S<sub>J</sub>**, y dado que arriba calculamos la
distancia, para obtener la similaridad, sólo hay que restarle el valor
de distancia a 1 (**S<sub>J</sub>=1-D<sub>J</sub>**).

``` r
(1 - mi_fam_jac) %>% tidy %>% rename(similaridad=distance) #Similaridad
```

    ## # A tibble: 1,225 x 3
    ##    item1 item2 similaridad
    ##    <int> <int>       <dbl>
    ##  1     2     1       0.917
    ##  2     3     1       0.846
    ##  3     4     1       0.846
    ##  4     5     1       0.733
    ##  5     6     1       0.769
    ##  6     7     1       0.769
    ##  7     8     1       0.769
    ##  8     9     1       0.769
    ##  9    10     1       0.769
    ## 10    11     1       0.846
    ## # … with 1,215 more rows
…
``` r
round(11/12*100,2) #Porcentaje de especies compartidas = similaridad
```

    ## [1] 91.67

Con `betadiver` también puedes calcular índices de similaridad. Por
ejemplo, el Jaccard se calcula así:

``` r
betadiver(mc_apcyn_melic_saptc, method = 'j') %>% tidy
```

    ## # A tibble: 1,225 x 3
    ##    item1 item2 distance
    ##    <int> <int>    <dbl>
    ##  1     2     1    0.917
    ##  2     3     1    0.846
    ##  3     4     1    0.846
    ##  4     5     1    0.733
    ##  5     6     1    0.769
    ##  6     7     1    0.769
    ##  7     8     1    0.769
    ##  8     9     1    0.769
    ##  9    10     1    0.769
    ## 10    11     1    0.846
    ## # … with 1,215 more rows

No obstante, usaremos esta función en los análisis de diversidad beta
más adelante.

Además de la distancia de Jaccard, otra distancia muy utilizada es la de
Sorensen o Bray-Curtis. Se calcula fácilmente con la función `vegdist`:

``` r
mi_fam_sor <- vegdist(mc_apcyn_melic_saptc, method = 'bray', binary = T)
mi_fam_sor %>% tidy
```

    ## # A tibble: 1,225 x 3
    ##    item1 item2 distance
    ##    <int> <int>    <dbl>
    ##  1     2     1   0.0435
    ##  2     3     1   0.0833
    ##  3     4     1   0.0833
    ##  4     5     1   0.154 
    ##  5     6     1   0.130 
    ##  6     7     1   0.130 
    ##  7     8     1   0.130 
    ##  8     9     1   0.130 
    ##  9    10     1   0.130 
    ## 10    11     1   0.0833
    ## # … with 1,215 more rows
…
``` r
env_suelo_punt_z <- bci_env_grid %>%
  st_drop_geometry() %>% 
  dplyr::select(matches('^[A-T,Z]|^pH$', ignore.case = F)) %>% 
  scale()
env_suelo_punt_z_d <- dist(env_suelo_punt_z)
env_suelo_punt_z_d %>% tidy
```

    ## # A tibble: 1,225 x 3
    ##    item1 item2 distance
    ##    <int> <int>    <dbl>
    ##  1     2     1     1.17
    ##  2     3     1     2.26
    ##  3     4     1     2.09
    ##  4     5     1     2.02
    ##  5     6     1     2.45
    ##  6     7     1     2.51
    ##  7     8     1     2.85
    ##  8     9     1     2.38
    ##  9    10     1     2.70
    ## 10    11     1     3.86
    ## # … with 1,215 more rows
…
  - `quebrada`. Informa sobre si hay o no quebrada. Los valores posibles
    son *Yes* o *No*.

<!-- end list -->

``` r
env_mix <- bci_env_grid %>%
  st_drop_geometry() %>%
  dplyr::select(heterogeneidad_ambiental, habitat, quebrada)
env_mix_d <- daisy(x = env_mix, metric = 'gower')
env_mix_d %>% as.dist %>% tidy
```

    ## # A tibble: 1,225 x 3
    ##    item1 item2 distance
    ##    <int> <int>    <dbl>
    ##  1     2     1    0.441
    ##  2     3     1    0.954
    ##  3     4     1    0.954
    ##  4     5     1    0.410
    ##  5     6     1    0.919
    ##  6     7     1    0.446
    ##  7     8     1    0.524
    ##  8     9     1    0.954
    ##  9    10     1    0.954
    ## 10    11     1    0.769
    ## # … with 1,215 more rows
…
