…
Tercero, calculo la distancia euclídea.

``` r
mi_fam_t_chi_d <- dist(mi_fam_t_chi)
mi_fam_t_chi_d %>% tidy
```

    ## # A tibble: 120 x 3
    ##    item1                      item2                      distance
    ##    <fct>                      <fct>                         <dbl>
    ##  1 "Cedrela\nodorata"         "Aspidosperma\nspruceanum"     2.71
    ##  2 "Chrysophyllum\nargenteum" "Aspidosperma\nspruceanum"     1.21
    ##  3 "Chrysophyllum\ncainito"   "Aspidosperma\nspruceanum"     1.21
    ##  4 "Guarea\nbullata"          "Aspidosperma\nspruceanum"     1.10
    ##  5 "Guarea\ngrandifolia"      "Aspidosperma\nspruceanum"     1.40
    ##  6 "Guarea\nguidonia"         "Aspidosperma\nspruceanum"     1.11
    ##  7 "Lacmellea\npanamensis"    "Aspidosperma\nspruceanum"     1.42
    ##  8 "Pouteria\nfossicola"      "Aspidosperma\nspruceanum"     5.16
    ##  9 "Pouteria\nreticulata"     "Aspidosperma\nspruceanum"     1.08
    ## 10 "Pouteria\nstipitata"      "Aspidosperma\nspruceanum"     1.91
    ## # … with 110 more rows
…
### Modo R para datos binarios (presencia/ausencia)

Arriba usé la distancia de Jaccard para evaluar asociación entre sitios.
Dicha métrica también se puede usar para evaluar la distancia entre
especies, usando como fuente la matriz de comunidad transpuesta
convertida a binaria (presencia/ausencia)

``` r
mi_fam_t_jac <- vegdist(mi_fam_t, "jaccard", binary = TRUE)
mi_fam_t_jac %>% tidy
```

    ## # A tibble: 120 x 3
    ##    item1                      item2                      distance
    ##    <fct>                      <fct>                         <dbl>
    ##  1 "Cedrela\nodorata"         "Aspidosperma\nspruceanum"   0.813 
    ##  2 "Chrysophyllum\nargenteum" "Aspidosperma\nspruceanum"   0.0400
    ##  3 "Chrysophyllum\ncainito"   "Aspidosperma\nspruceanum"   0.16  
    ##  4 "Guarea\nbullata"          "Aspidosperma\nspruceanum"   0.0400
    ##  5 "Guarea\ngrandifolia"      "Aspidosperma\nspruceanum"   0.271 
    ##  6 "Guarea\nguidonia"         "Aspidosperma\nspruceanum"   0.0400
    ##  7 "Lacmellea\npanamensis"    "Aspidosperma\nspruceanum"   0.220 
    ##  8 "Pouteria\nfossicola"      "Aspidosperma\nspruceanum"   0.938 
    ##  9 "Pouteria\nreticulata"     "Aspidosperma\nspruceanum"   0.0400
    ## 10 "Pouteria\nstipitata"      "Aspidosperma\nspruceanum"   0.420 
    ## # … with 110 more rows
…
``` r
env_num <- bci_env_grid %>%
  dplyr::select_if(is.numeric) %>%
  dplyr::select(-id, -matches('^U.*')) %>% 
  st_drop_geometry %>% 
  mutate(
    riqueza_mifam = specnumber(mc_apcyn_melic_saptc),
    abundancia_mifam = rowSums(mc_apcyn_melic_saptc)) %>% 
  rename_all(gsub, pattern = '_pct$', replacement = '') %>% 
  rename_all(gsub, pattern = '_| ', replacement = '\n')
env_num %>% tibble
```

    ## # A tibble: 50 x 33
    ##    `heterogeneidad… `geomorf\nllanu… `geomorf\npico` `geomorf\ninter…
    ##               <dbl>            <dbl>           <dbl>            <dbl>
    ##  1           0.627             10.0             0                0.83
    ##  2           0.394             34.8             0                0.36
    ##  3           0                  0               0                0   
    ##  4           0                  0               0                0.16
    ##  5           0.461              2.58            0                0   
    ##  6           0.0768             0               0.17             3.01
    ##  7           0.381              0               0.53             2.87
    ##  8           0.211              0               0                0   
    ##  9           0                  0               0                0   
    ## 10           0                  1.03            0                0   
    ## # … with 40 more rows, and 29 more variables: `geomorf\nhombrera` <dbl>,
    ## #   `geomorf\nespolón/gajo` <dbl>, `geomorf\nvertiente` <dbl>,
    ## #   `geomorf\nvaguada` <dbl>, `geomorf\npiedemonte` <dbl>,
    ## #   `geomorf\nvalle` <dbl>, `geomorf\nsima` <dbl>, Al <dbl>, B <dbl>,
    ## #   Ca <dbl>, Cu <dbl>, Fe <dbl>, K <dbl>, Mg <dbl>, Mn <dbl>, P <dbl>,
    ## #   Zn <dbl>, N <dbl>, N.min. <dbl>, pH <dbl>, `elevacion\nmedia` <dbl>,
    ## #   `pendiente\nmedia` <dbl>, `orientacion\nmedia` <dbl>,
    ## #   `curvatura\nperfil\nmedia` <dbl>,
    ## #   `curvatura\ntangencial\nmedia` <dbl>, `abundancia\nglobal` <dbl>,
…
