…
``` r
bci_env_grid %>% tibble
```

    ## # A tibble: 50 x 39
    ##       id categoria_de_ed… geologia habitat quebrada heterogeneidad_… UTM.EW
    ##    <dbl> <fct>            <fct>    <fct>   <fct>               <dbl>  <dbl>
    ##  1     1 c3               Tb       OldSlo… Yes                0.627  6.26e5
    ##  2     2 c3               Tb       OldLow  Yes                0.394  6.26e5
    ##  3     3 c3               Tb       OldLow  No                 0      6.26e5
    ##  4     4 c3               Tb       OldLow  No                 0      6.26e5
    ##  5     5 c3               Tb       OldSlo… No                 0.461  6.26e5
    ##  6     6 c3               Tb       OldLow  No                 0.0768 6.26e5
    ##  7     7 c3               Tb       OldLow  Yes                0.381  6.26e5
    ##  8     8 c3               Tb       OldLow  Yes                0.211  6.26e5
    ##  9     9 c3               Tb       OldLow  No                 0      6.26e5
    ## 10    10 c3               Tb       OldLow  No                 0      6.26e5
    ## # … with 40 more rows, and 32 more variables: UTM.NS <dbl>,
    ## #   geomorf_llanura_pct <dbl>, geomorf_pico_pct <dbl>,
    ## #   geomorf_interfluvio_pct <dbl>, geomorf_hombrera_pct <dbl>,
    ## #   `geomorf_espolón/gajo_pct` <dbl>, geomorf_vertiente_pct <dbl>,
    ## #   geomorf_vaguada_pct <dbl>, geomorf_piedemonte_pct <dbl>,
    ## #   geomorf_valle_pct <dbl>, geomorf_sima_pct <dbl>, Al <dbl>, B <dbl>,
    ## #   Ca <dbl>, Cu <dbl>, Fe <dbl>, K <dbl>, Mg <dbl>, Mn <dbl>, P <dbl>,
    ## #   Zn <dbl>, N <dbl>, N.min. <dbl>, pH <dbl>, elevacion_media <dbl>,
    ## #   pendiente_media <dbl>, orientacion_media <dbl>,
…
Nota (de nuevo): recuerda que los datos de BCI están autocorrelacionados
espacialmente, por lo que los patrones que encuentres estarán siempre
afectados por el incumplimiento del supuesto de independencia; no
obstante, el ejercicio es bastante didáctico.

#### Ejemplo usando las matriz ambiental de variables suelo:

``` r
mi_fam_hel <- decostand(mi_fam, method = 'hellinger')
mi_fam_hel %>% tibble
```

    ## # A tibble: 50 x 16
    ##    Aspispru Cedrodor Chryarge Chrycain Guarbull Guargran Guarguid Lacmpana
    ##       <dbl>    <dbl>    <dbl>    <dbl>    <dbl>    <dbl>    <dbl>    <dbl>
    ##  1   0.0985   0         0.261   0.0805    0.279   0.114     0.346   0.0805
    ##  2   0.0799   0         0.187   0.0565    0.253   0.0799    0.325   0     
    ##  3   0.0964   0         0.297   0.0682    0.264   0.0964    0.305   0.118 
    ##  4   0.113    0         0.400   0.0919    0.283   0.0650    0.298   0.113 
    ##  5   0.103    0.0729    0.334   0         0.357   0.0729    0.334   0.126 
    ##  6   0.125    0         0.305   0         0.249   0.0720    0.279   0.125 
    ##  7   0        0         0.189   0.109     0.178   0         0.259   0.0889
    ##  8   0.136    0         0.255   0         0.216   0.0682    0.334   0.136 
    ##  9   0.167    0         0.373   0         0.167   0.0745    0.167   0.0745
    ## 10   0.0684   0         0.282   0.0684    0.298   0         0.282   0.0684
    ## # … with 40 more rows, and 8 more variables: Poutfoss <dbl>,
    ## #   Poutreti <dbl>, Poutstip <dbl>, Rauvlitt <dbl>, Tabearbo <dbl>,
    ## #   Thevahou <dbl>, Tricpall <dbl>, Trictube <dbl>

``` r
env_suelo <- bci_env_grid %>%
  st_drop_geometry %>%
  dplyr::select(matches('^[A-T,Z]|^pH$', ignore.case = F))
env_suelo %>% tibble
```

    ## # A tibble: 50 x 13
    ##       Al     B    Ca    Cu    Fe     K    Mg    Mn     P    Zn     N
    ##    <dbl> <dbl> <dbl> <dbl> <dbl> <dbl> <dbl> <dbl> <dbl> <dbl> <dbl>
    ##  1  901. 0.794 1680.  6.20  135. 142.   279.  267.  1.95  2.97  18.5
    ##  2  954. 0.670 1503.  6.03  142. 137.   280.  320.  2.25  2.53  21.6
    ##  3 1114. 0.595 1182.  6.80  157.  98.7  230.  445.  1.95  2.25  20.2
    ##  4 1024. 0.568 1558.  6.63  153.  98.4  229.  408.  2.63  2.44  20.8
    ##  5 1002. 0.399 1242.  6.44  149.  94.1  203.  251.  1.86  2.14  16.9
    ##  6 1091. 0.731 1442.  6.50  174. 132.   277.  477.  1.62  2.63  20.3
    ##  7 1184. 0.340 1111.  5.55  138. 117.   242.  301.  2.13  2.16  20.1
    ##  8 1256. 0.322 1029.  6.28  147. 104.   185.  204.  3.11  2.07  21.5
    ##  9 1122. 0.464 1230.  7.18  153. 110.   207.  415.  1.99  2.33  21.4
    ## 10 1172. 0.314 1127.  6.89  133. 105.   172.  330.  1.69  2.05  18.3
    ## # … with 40 more rows, and 2 more variables: N.min. <dbl>, pH <dbl>
…
